<?xml version="1.0" encoding="UTF-8" standalone="no"?>
<!DOCTYPE svg PUBLIC "-//W3C//DTD SVG 1.1//EN" "http://www.w3.org/Graphics/SVG/1.1/DTD/svg11.dtd">
<svg width="100%" height="100%" viewBox="0 0 787 199" version="1.1" xmlns="http://www.w3.org/2000/svg" xmlns:xlink="http://www.w3.org/1999/xlink" xml:space="preserve" xmlns:serif="http://www.serif.com/" style="fill-rule:evenodd;clip-rule:evenodd;stroke-linejoin:round;stroke-miterlimit:1.41421;">
    <g transform="matrix(1,0,0,1,0,-1284.37)">
        <g id="Page-5" serif:id="Page 5" transform="matrix(1,0,0,1,0,1284.37)">
            <rect x="0" y="0" width="786.746" height="198.425" style="fill:none;"/>
            <g id="Layer-1" serif:id="Layer 1">
                <g transform="matrix(-0.272901,0.962042,0.962042,0.272901,275.546,125.055)">
                    <path d="M-68.248,-61.752L49.557,-61.752L46.672,-51.581L-71.133,-51.581L-68.248,-61.752Z" style="fill:rgb(178,178,178);fill-rule:nonzero;"/>
                </g>
                <g>
                    <g opacity="0.800003">
                        <g transform="matrix(1,0,0,1,296.772,82.2347)">
                            <path d="M0,38.362C-1.255,39.174 -2.47,39.831 -3.644,40.32C-5.876,41.357 -8.588,41.876 -11.78,41.876C-17.956,41.876 -23.173,39.71 -27.429,35.375C-31.685,31.042 -33.813,25.722 -33.813,19.415C-33.813,13.031 -31.685,7.634 -27.429,3.221C-23.199,-1.217 -17.995,-3.435 -11.819,-3.435C-7.821,-3.435 -3.919,-2.299 -0.106,-0.068L4.453,-7.501L4.453,-7.601C-0.582,-10.533 -5.798,-12 -11.196,-12C-21.084,-12 -29.142,-8.327 -35.37,-0.982C-40.431,5.012 -42.961,11.838 -42.961,19.493C-42.961,28.031 -39.938,35.324 -33.891,41.371C-27.818,47.365 -20.487,50.362 -11.897,50.362C-6.187,50.362 -0.738,48.897 4.453,45.964L4.453,45.622L0,38.362Z" style="fill:rgb(32,39,33);fill-rule:nonzero;"/>
                        </g>
                    </g>
                </g>
                <g transform="matrix(-1,-0,-0,1,111.459,4.407)">
                    <rect x="51.024" y="65.828" width="9.411" height="62.362" style="fill:rgb(0,173,216);"/>
                </g>
                <g>
                    <g opacity="0.800003">
                        <g transform="matrix(1,0,0,1,96.6647,102.641)">
                            <path d="M0,-2.45L24.821,-2.45L24.821,-0.466C24.821,4.046 24.289,8.04 23.225,11.516C22.188,14.733 20.437,17.74 17.973,20.541C12.397,26.818 5.304,29.956 -3.306,29.956C-11.71,29.956 -18.907,26.921 -24.898,20.852C-30.889,14.757 -33.884,7.445 -33.884,-1.089C-33.884,-9.803 -30.837,-17.195 -24.742,-23.264C-18.648,-29.358 -11.23,-32.406 -2.489,-32.406C2.204,-32.406 6.588,-31.445 10.66,-29.527C14.55,-27.608 17.172,-26.113 20.932,-21.808L15.931,-13.601C11.003,-20.162 4.747,-23.847 -2.334,-23.847C-8.688,-23.847 -14.018,-21.655 -18.323,-17.273C-22.629,-12.967 -24.781,-7.572 -24.781,-1.089C-24.781,5.602 -22.382,11.114 -17.584,15.445C-13.097,19.465 -8.235,21.475 -2.995,21.475C1.465,21.475 5.472,19.971 9.026,16.963C12.579,13.929 14.563,10.298 14.978,6.069L0,6.069L0,-2.45Z" style="fill:rgb(32,39,33);fill-rule:nonzero;"/>
                        </g>
                    </g>
                </g>
                <g>
                    <g opacity="0.800003">
                        <g transform="matrix(1,0,0,1,121.793,101.553)">
                            <path d="M0,-0.273C0,6.375 2.233,11.841 6.7,16.126C11.14,20.411 16.269,22.553 22.086,22.553C28.397,22.553 33.72,20.372 38.057,16.009C42.393,11.595 44.562,6.22 44.562,-0.117C44.562,-6.53 42.419,-11.907 38.134,-16.244C33.875,-20.606 28.604,-22.788 22.32,-22.788C16.062,-22.788 10.776,-20.606 6.466,-16.244C2.156,-11.933 0,-6.609 0,-0.273M-9.154,-0.39C-9.154,-8.855 -6.05,-16.127 0.156,-22.203C6.336,-28.28 13.763,-31.318 22.436,-31.318C31.006,-31.318 38.355,-28.254 44.484,-22.125C50.639,-15.996 53.715,-8.635 53.715,-0.039C53.715,8.608 50.625,15.944 44.445,21.969C38.238,28.02 30.747,31.045 21.969,31.045C14.204,31.045 7.232,28.357 1.052,22.982C-5.752,17.036 -9.154,9.245 -9.154,-0.39" style="fill:rgb(32,39,33);fill-rule:nonzero;"/>
                        </g>
                    </g>
                </g>
                <g>
                    <g opacity="0.800003">
                        <g transform="matrix(1,0,0,1,187.256,103.96)">
                            <path d="M0,-5.088L2.988,-5.088C11.9,-5.088 16.357,-8.495 16.357,-15.307C16.357,-21.688 12.022,-24.879 3.353,-24.879L0,-24.879L0,-5.088ZM11.713,2.06L31.02,28.637L19.508,28.637L1.696,3.111L0,3.111L0,28.637L-9.411,28.637L-9.411,-33.725L1.615,-33.725C9.855,-33.725 15.806,-32.176 19.467,-29.079C23.507,-25.633 25.526,-21.082 25.526,-15.429C25.526,-11.012 24.26,-7.215 21.729,-4.039C19.198,-0.861 15.859,1.172 11.713,2.06" style="fill:rgb(32,39,33);fill-rule:nonzero;"/>
                        </g>
                    </g>
                </g>
                <g>
                    <g opacity="0.800003">
                        <g transform="matrix(1,0,0,1,259.9,125.608)">
                            <path d="M0,-48.384L-4.496,-40.892C-5.872,-43.279 -7.182,-44.837 -8.428,-45.563C-9.726,-46.393 -11.4,-46.809 -13.449,-46.809C-15.967,-46.809 -18.057,-46.095 -19.717,-44.668C-21.378,-43.267 -22.208,-41.501 -22.208,-39.374C-22.208,-36.441 -20.029,-34.08 -15.668,-32.289L-9.674,-29.836C-4.795,-27.864 -1.227,-25.457 1.032,-22.615C3.289,-19.773 4.418,-16.29 4.418,-12.163C4.418,-6.636 2.575,-2.068 -1.11,1.54C-4.821,5.173 -9.428,6.989 -14.929,6.989C-20.145,6.989 -24.122,5.036 -27.853,2.357C-32.656,-1.094 -33.164,-1.916 -35.114,-4.187L-29.927,-12.256C-28.836,-10.116 -26.843,-7.305 -22.754,-4.4C-20.941,-3.156 -18.16,-1.497 -14.579,-1.497C-11.75,-1.497 -9.401,-2.444 -7.533,-4.339C-5.665,-6.233 -4.73,-8.633 -4.73,-11.541C-4.73,-12.709 -4.892,-13.779 -5.217,-14.752C-5.541,-15.725 -6.047,-16.62 -6.735,-17.438C-7.422,-18.255 -8.311,-19.02 -9.401,-19.735C-10.491,-20.448 -11.789,-21.13 -13.294,-21.779L-19.094,-24.192C-27.321,-27.67 -31.434,-32.756 -31.434,-39.452C-31.434,-43.968 -29.709,-47.743 -26.257,-50.78C-22.806,-53.841 -18.51,-55.373 -13.372,-55.373C-8.016,-55.373 -4.17,-53.598 0,-48.384" style="fill:rgb(32,39,33);fill-rule:nonzero;"/>
                        </g>
                    </g>
                </g>
                <g>
                    <g opacity="0.800003">
                        <g transform="matrix(1,0,0,1,312.949,108.201)">
                            <path d="M0,-13.57L26.9,-13.57L26.9,-37.966L36.31,-37.966L36.31,24.396L26.9,24.396L26.9,-4.724L0,-4.724L0,24.396L-9.411,24.396L-9.411,-37.966L0,-37.966L0,-13.57Z" style="fill:rgb(32,39,33);fill-rule:nonzero;"/>
                        </g>
                    </g>
                </g>
                <g>
                    <g opacity="0.800003">
                        <g transform="matrix(1,0,0,1,531.902,123.77)">
                            <path d="M0,-44.689L0,-53.535L-34.412,-53.535L-34.412,-53.516L-82.736,-53.516L-82.736,-53.535L-91.979,-53.535L-91.979,-16.641C-91.979,-11.299 -92.839,-7.451 -94.557,-5.097C-97.123,-1.58 -100.746,0.179 -105.427,0.179C-110.083,0.179 -113.693,-1.58 -116.258,-5.097C-117.977,-7.53 -118.836,-11.379 -118.836,-16.641L-118.836,-53.535L-128.079,-53.535L-128.079,-14.103C-128.079,-7.649 -126.07,-2.334 -122.049,1.845C-117.554,6.5 -112.013,8.827 -105.427,8.827C-98.843,8.827 -93.288,6.5 -88.766,1.845C-84.746,-2.334 -82.736,-7.649 -82.736,-14.103L-82.736,-44.67L-63.262,-44.67L-63.262,8.846L-53.85,8.846L-53.85,-44.67L-34.412,-44.67L-34.412,8.826L0,8.827L0,-0.019L-25.001,-0.019L-25.001,-20.86L-3.809,-20.859L-3.809,-29.705L-25.001,-29.706L-25.001,-44.689L0,-44.689Z" style="fill:rgb(32,39,33);fill-rule:nonzero;"/>
                        </g>
                    </g>
                </g>
                <g>
                    <g opacity="0.800003">
                        <g transform="matrix(1,0,0,1,542.108,132.594)">
                            <path d="M0,-62.356L35.161,-15.299L35.161,-62.359L44.573,-62.359L44.573,0.003L35.72,0.003L35.72,0L2.176,-43.658L2.176,0.003L-7.235,0.003L-7.235,-62.359L0,-62.356Z" style="fill:rgb(32,39,33);fill-rule:nonzero;"/>
                        </g>
                    </g>
                </g>
                <g transform="matrix(1,0,0,1,354.261,101.553)">
                    <path d="M0,-0.273C0,6.375 2.233,11.841 6.7,16.126C11.14,20.411 16.269,22.553 22.086,22.553C28.397,22.553 33.72,20.372 38.057,16.009C42.393,11.595 44.562,6.22 44.562,-0.117C44.562,-6.53 42.419,-11.907 38.134,-16.244C33.875,-20.606 28.604,-22.788 22.32,-22.788C16.062,-22.788 10.776,-20.606 6.466,-16.244C2.155,-11.933 0,-6.609 0,-0.273M-9.154,-0.39C-9.154,-8.855 -6.05,-16.127 0.156,-22.203C6.336,-28.28 13.763,-31.318 22.436,-31.318C31.006,-31.318 38.355,-28.254 44.484,-22.125C50.639,-15.996 53.715,-8.635 53.715,-0.039C53.715,8.608 50.625,15.944 44.445,21.969C38.238,28.02 30.747,31.045 21.969,31.045C14.204,31.045 7.232,28.357 1.052,22.982C-5.753,17.036 -9.154,9.245 -9.154,-0.39" style="fill:rgb(0,173,216);fill-rule:nonzero;"/>
                </g>
                <g transform="matrix(1,0,0,1,593.543,128.589)">
                    <path d="M0,-0.079C0,-1.547 0.536,-2.818 1.611,-3.893C2.687,-4.967 3.971,-5.505 5.465,-5.505C6.959,-5.505 8.243,-4.967 9.318,-3.893C10.393,-2.818 10.931,-1.534 10.931,-0.039C10.931,1.481 10.393,2.778 9.318,3.853C8.27,4.9 6.984,5.426 5.465,5.426C3.918,5.426 2.62,4.9 1.572,3.853C0.523,2.805 0,1.494 0,-0.079" style="fill:rgb(178,178,178);fill-rule:nonzero;"/>
                </g>
                <g transform="matrix(1,0,0,1,643.654,111.811)">
                    <path d="M0,-0.191C0,4.493 1.574,8.344 4.721,11.362C7.849,14.381 11.462,15.891 15.56,15.891C20.006,15.891 23.757,14.354 26.813,11.28C29.867,8.17 31.395,4.383 31.395,-0.081C31.395,-4.6 29.886,-8.387 26.867,-11.443C23.866,-14.517 20.153,-16.054 15.725,-16.054C11.316,-16.054 7.592,-14.517 4.556,-11.443C1.518,-8.406 0,-4.655 0,-0.191M-6.449,-0.274C-6.449,-6.238 -4.263,-11.361 0.11,-15.642C4.464,-19.923 9.697,-22.064 15.808,-22.064C21.845,-22.064 27.023,-19.905 31.341,-15.587C35.677,-11.269 37.845,-6.082 37.845,-0.026C37.845,6.066 35.667,11.235 31.313,15.479C26.94,19.742 21.662,21.873 15.479,21.873C10.008,21.873 5.096,19.98 0.741,16.193C-4.053,12.003 -6.449,6.515 -6.449,-0.274" style="fill:rgb(178,178,178);fill-rule:nonzero;"/>
                </g>
                <g transform="matrix(1,0,0,1,725.128,132.913)">
                    <path d="M0,-43.937L-15.788,-12.822L-31.596,-43.937L-38.333,-43.937L-38.333,0L-31.517,0L-31.517,-31.918L-16.153,0L-15.42,0L0.085,-31.918L0.085,0L6.757,0L6.757,-43.937L0,-43.937Z" style="fill:rgb(178,178,178);fill-rule:nonzero;"/>
                </g>
                <g transform="matrix(1,0,0,1,634.067,98.2162)">
                    <path d="M0,27.027C-0.884,27.599 -1.74,28.062 -2.567,28.406C-4.14,29.137 -6.05,29.503 -8.299,29.503C-12.651,29.503 -16.326,27.977 -19.325,24.923C-22.324,21.87 -23.823,18.121 -23.823,13.678C-23.823,9.18 -22.324,5.378 -19.325,2.269C-16.345,-0.858 -12.679,-2.421 -8.327,-2.421C-5.511,-2.421 -2.761,-1.62 -0.075,-0.049L3.137,-5.286L3.137,-5.356C-0.41,-7.422 -4.085,-8.455 -7.888,-8.455C-14.854,-8.455 -20.532,-5.867 -24.92,-0.693C-28.485,3.53 -30.268,8.339 -30.268,13.733C-30.268,19.748 -28.138,24.887 -23.878,29.147C-19.599,33.37 -14.434,35.482 -8.382,35.482C-4.359,35.482 -0.52,34.449 3.137,32.383L3.137,32.142L0,27.027Z" style="fill:rgb(178,178,178);fill-rule:nonzero;"/>
                </g>
            </g>
        </g>
    </g>
</svg>
